﻿[
  {
    "buCode": "066",
    "name": "Augsburg",
    "countryCode": "de"
  },
  {
    "buCode": "324",
    "name": "Berlin-Lichtenberg",
    "countryCode": "de"
  },
  {
    "buCode": "394",
    "name": "Berlin-Spandau",
    "countryCode": "de"
  },
  {
    "buCode": "421",
    "name": "Berlin-Tempelhof",
    "countryCode": "de"
  },
  {
    "buCode": "129",
    "name": "Berlin-Waltersdorf",
    "countryCode": "de"
  },
  {
    "buCode": "119",
    "name": "Bielefeld",
    "countryCode": "de"
  },
  {
    "buCode": "117",
    "name": "Braunschweig",
    "countryCode": "de"
  },
  {
    "buCode": "412",
    "name": "Bremerhaven",
    "countryCode": "de"
  },
  {
    "buCode": "228",
    "name": "Brinkum",
    "countryCode": "de"
  },
  {
    "buCode": "118",
    "name": "Chemnitz",
    "countryCode": "de"
  },
  {
    "buCode": "223",
    "name": "Dortmund",
    "countryCode": "de"
  },
  {
    "buCode": "221",
    "name": "Dresden",
    "countryCode": "de"
  },
  {
    "buCode": "425",
    "name": "Duisburg",
    "countryCode": "de"
  },
  {
    "buCode": "321",
    "name": "Düsseldorf",
    "countryCode": "de"
  },
  {
    "buCode": "396",
    "name": "Erfurt",
    "countryCode": "de"
  },
  {
    "buCode": "148",
    "name": "Essen",
    "countryCode": "de"
  },
  {
    "buCode": "393",
    "name": "Frankfurt",
    "countryCode": "de"
  },
  {
    "buCode": "320",
    "name": "Freiburg",
    "countryCode": "de"
  },
  {
    "buCode": "226",
    "name": "Großburgwedel",
    "countryCode": "de"
  },
  {
    "buCode": "139",
    "name": "Halle/Leipzig",
    "countryCode": "de"
  },
  {
    "buCode": "245",
    "name": "Hamburg-Altona",
    "countryCode": "de"
  },
  {
    "buCode": "325",
    "name": "Hamburg-Moorfleet",
    "countryCode": "de"
  },
  {
    "buCode": "146",
    "name": "Hamburg-Schnelsen",
    "countryCode": "de"
  },
  {
    "buCode": "222",
    "name": "Hanau",
    "countryCode": "de"
  },
  {
    "buCode": "187",
    "name": "Hannover EXPO-Park",
    "countryCode": "de"
  },
  {
    "buCode": "073",
    "name": "Kaarst",
    "countryCode": "de"
  },
  {
    "buCode": "430",
    "name": "Kaiserslautern",
    "countryCode": "de"
  },
  {
    "buCode": "323",
    "name": "Kamen",
    "countryCode": "de"
  },
  {
    "buCode": "174",
    "name": "Kassel",
    "countryCode": "de"
  },
  {
    "buCode": "333",
    "name": "Kiel",
    "countryCode": "de"
  },
  {
    "buCode": "332",
    "name": "Koblenz",
    "countryCode": "de"
  },
  {
    "buCode": "102",
    "name": "Köln-Butzweilerhof",
    "countryCode": "de"
  },
  {
    "buCode": "147",
    "name": "Köln-Godorf",
    "countryCode": "de"
  },
  {
    "buCode": "289",
    "name": "Lübeck",
    "countryCode": "de"
  },
  {
    "buCode": "225",
    "name": "Ludwigsburg",
    "countryCode": "de"
  },
  {
    "buCode": "397",
    "name": "Mannheim",
    "countryCode": "de"
  },
  {
    "buCode": "343",
    "name": "München-Brunnthal",
    "countryCode": "de"
  },
  {
    "buCode": "063",
    "name": "München-Eching",
    "countryCode": "de"
  },
  {
    "buCode": "326",
    "name": "Nürnberg/Fürth",
    "countryCode": "de"
  },
  {
    "buCode": "069",
    "name": "Oldenburg",
    "countryCode": "de"
  },
  {
    "buCode": "184",
    "name": "Osnabrück",
    "countryCode": "de"
  },
  {
    "buCode": "229",
    "name": "Regensburg",
    "countryCode": "de"
  },
  {
    "buCode": "092",
    "name": "Rostock",
    "countryCode": "de"
  },
  {
    "buCode": "227",
    "name": "Saarlouis",
    "countryCode": "de"
  },
  {
    "buCode": "369",
    "name": "Siegen",
    "countryCode": "de"
  },
  {
    "buCode": "224",
    "name": "Sindelfingen",
    "countryCode": "de"
  },
  {
    "buCode": "328",
    "name": "Ulm",
    "countryCode": "de"
  },
  {
    "buCode": "322",
    "name": "Wallau",
    "countryCode": "de"
  },
  {
    "buCode": "075",
    "name": "Walldorf",
    "countryCode": "de"
  },
  {
    "buCode": "492",
    "name": "Wuppertal",
    "countryCode": "de"
  },
  {
    "buCode": "124",
    "name": "Würzburg",
    "countryCode": "de"
  },
  {
    "buCode": "387",
    "name": "Graz",
    "countryCode": "at"
  },
  {
    "buCode": "388",
    "name": "Haid",
    "countryCode": "at"
  },
  {
    "buCode": "273",
    "name": "Innsbruck",
    "countryCode": "at"
  },
  {
    "buCode": "155",
    "name": "Klagenfurt",
    "countryCode": "at"
  },
  {
    "buCode": "386",
    "name": "Salzburg",
    "countryCode": "at"
  },
  {
    "buCode": "090",
    "name": "Wien Nord",
    "countryCode": "at"
  },
  {
    "buCode": "085",
    "name": "Wien Vösendorf",
    "countryCode": "at"
  },
  {
    "buCode": "078",
    "name": "Aubonne VD (fr)",
    "countryCode": "ch"
  },
  {
    "buCode": "291",
    "name": "Dietlikon ZH (de)",
    "countryCode": "ch"
  },
  {
    "buCode": "101",
    "name": "Grancia TI (it)",
    "countryCode": "ch"
  },
  {
    "buCode": "290",
    "name": "Lyssach BE (de)",
    "countryCode": "ch"
  },
  {
    "buCode": "292",
    "name": "Pratteln BL (de)",
    "countryCode": "ch"
  },
  {
    "buCode": "275",
    "name": "Rothenburg LU (de)",
    "countryCode": "ch"
  },
  {
    "buCode": "079",
    "name": "Spreitenbach AG (de)",
    "countryCode": "ch"
  },
  {
    "buCode": "917",
    "name": "St. Gallen SG (de)",
    "countryCode": "ch"
  },
  {
    "buCode": "918",
    "name": "Vernier GE (fr)",
    "countryCode": "ch"
  },
  {
    "buCode": "502",
    "name": "A Coruña",
    "countryCode": "es"
  },
  {
    "buCode": "031",
    "name": "Alcorcón",
    "countryCode": "es"
  },
  {
    "buCode": "428",
    "name": "Asturias",
    "countryCode": "es"
  },
  {
    "buCode": "280",
    "name": "Badalona",
    "countryCode": "es"
  },
  {
    "buCode": "276",
    "name": "Barakaldo/Pamplona (Punto de entrega)",
    "countryCode": "es"
  },
  {
    "buCode": "498",
    "name": "Ensanche de Vallecas",
    "countryCode": "es"
  },
  {
    "buCode": "406",
    "name": "Granvia L´Hospitalet",
    "countryCode": "es"
  },
  {
    "buCode": "277",
    "name": "Jerez",
    "countryCode": "es"
  },
  {
    "buCode": "304",
    "name": "Málaga",
    "countryCode": "es"
  },
  {
    "buCode": "449",
    "name": "Murcia",
    "countryCode": "es"
  },
  {
    "buCode": "171",
    "name": "Sabadell",
    "countryCode": "es"
  },
  {
    "buCode": "283",
    "name": "Sevilla",
    "countryCode": "es"
  },
  {
    "buCode": "282",
    "name": "SS de los Reyes",
    "countryCode": "es"
  },
  {
    "buCode": "339",
    "name": "Valencia",
    "countryCode": "es"
  },
  {
    "buCode": "030",
    "name": "Valladolid",
    "countryCode": "es"
  },
  {
    "buCode": "497",
    "name": "Zaragoza",
    "countryCode": "es"
  },
  {
    "buCode": "018",
    "name": "Avignon",
    "countryCode": "fr"
  },
  {
    "buCode": "310",
    "name": "Bayonne Ametzondo",
    "countryCode": "fr"
  },
  {
    "buCode": "134",
    "name": "Bordeaux",
    "countryCode": "fr"
  },
  {
    "buCode": "060",
    "name": "Brest",
    "countryCode": "fr"
  },
  {
    "buCode": "199",
    "name": "Caen Fleury-sur-Orne",
    "countryCode": "fr"
  },
  {
    "buCode": "345",
    "name": "Clermont-Ferrand",
    "countryCode": "fr"
  },
  {
    "buCode": "086",
    "name": "Dijon",
    "countryCode": "fr"
  },
  {
    "buCode": "435",
    "name": "Grenoble",
    "countryCode": "fr"
  },
  {
    "buCode": "051",
    "name": "Hénin-Beaumont",
    "countryCode": "fr"
  },
  {
    "buCode": "133",
    "name": "Lille",
    "countryCode": "fr"
  },
  {
    "buCode": "433",
    "name": "Marseille - La Valentine",
    "countryCode": "fr"
  },
  {
    "buCode": "130",
    "name": "Marseille - Vitrolles",
    "countryCode": "fr"
  },
  {
    "buCode": "260",
    "name": "Metz",
    "countryCode": "fr"
  },
  {
    "buCode": "402",
    "name": "Montpellier",
    "countryCode": "fr"
  },
  {
    "buCode": "444",
    "name": "Mulhouse",
    "countryCode": "fr"
  },
  {
    "buCode": "316",
    "name": "Nantes",
    "countryCode": "fr"
  },
  {
    "buCode": "487",
    "name": "Orléans Ardon",
    "countryCode": "fr"
  },
  {
    "buCode": "240",
    "name": "Paris Est, Villiers sur Marne",
    "countryCode": "fr"
  },
  {
    "buCode": "389",
    "name": "Paris N-O, Franconville",
    "countryCode": "fr"
  },
  {
    "buCode": "131",
    "name": "Paris Nord, Roissy",
    "countryCode": "fr"
  },
  {
    "buCode": "083",
    "name": "Paris Ouest, Plaisir",
    "countryCode": "fr"
  },
  {
    "buCode": "285",
    "name": "Paris Ouest, Vélizy",
    "countryCode": "fr"
  },
  {
    "buCode": "082",
    "name": "Paris Sud, Evry",
    "countryCode": "fr"
  },
  {
    "buCode": "432",
    "name": "Paris Sud, Thiais",
    "countryCode": "fr"
  },
  {
    "buCode": "198",
    "name": "Reims",
    "countryCode": "fr"
  },
  {
    "buCode": "177",
    "name": "Rennes",
    "countryCode": "fr"
  },
  {
    "buCode": "163",
    "name": "Rouen",
    "countryCode": "fr"
  },
  {
    "buCode": "431",
    "name": "St Etienne",
    "countryCode": "fr"
  },
  {
    "buCode": "132",
    "name": "St Priest",
    "countryCode": "fr"
  },
  {
    "buCode": "239",
    "name": "Strasbourg",
    "countryCode": "fr"
  },
  {
    "buCode": "315",
    "name": "Toulon",
    "countryCode": "fr"
  },
  {
    "buCode": "242",
    "name": "Toulouse",
    "countryCode": "fr"
  },
  {
    "buCode": "434",
    "name": "Tours",
    "countryCode": "fr"
  },
  {
    "buCode": "502",
    "name": "A Coruña",
    "countryCode": "es"
  },
  {
    "buCode": "031",
    "name": "Alcorcón",
    "countryCode": "es"
  },
  {
    "buCode": "428",
    "name": "Asturias",
    "countryCode": "es"
  },
  {
    "buCode": "280",
    "name": "Badalona",
    "countryCode": "es"
  },
  {
    "buCode": "276",
    "name": "Barakaldo/Pamplona (Punto de entrega)",
    "countryCode": "es"
  },
  {
    "buCode": "498",
    "name": "Ensanche de Vallecas",
    "countryCode": "es"
  },
  {
    "buCode": "406",
    "name": "Granvia L´Hospitalet",
    "countryCode": "es"
  },
  {
    "buCode": "277",
    "name": "Jerez",
    "countryCode": "es"
  },
  {
    "buCode": "304",
    "name": "Málaga",
    "countryCode": "es"
  },
  {
    "buCode": "449",
    "name": "Murcia",
    "countryCode": "es"
  },
  {
    "buCode": "171",
    "name": "Sabadell",
    "countryCode": "es"
  },
  {
    "buCode": "283",
    "name": "Sevilla",
    "countryCode": "es"
  },
  {
    "buCode": "282",
    "name": "SS de los Reyes",
    "countryCode": "es"
  },
  {
    "buCode": "339",
    "name": "Valencia",
    "countryCode": "es"
  },
  {
    "buCode": "030",
    "name": "Valladolid",
    "countryCode": "es"
  },
  {
    "buCode": "497",
    "name": "Zaragoza",
    "countryCode": "es"
  },
  {
    "buCode": "202",
    "name": "Espoo",
    "countryCode": "fi"
  },
  {
    "buCode": "208",
    "name": "Kuopio",
    "countryCode": "fi"
  },
  {
    "buCode": "301",
    "name": "Raisio",
    "countryCode": "fi"
  },
  {
    "buCode": "008",
    "name": "Tampere",
    "countryCode": "fi"
  },
  {
    "buCode": "422",
    "name": "Vantaa",
    "countryCode": "fi"
  },
  {
    "buCode": "062",
    "name": "Causeway Bay",
    "countryCode": "hk"
  },
  {
    "buCode": "071",
    "name": "Kowloon Bay",
    "countryCode": "hk"
  },
  {
    "buCode": "052",
    "name": "Shatin",
    "countryCode": "hk"
  },
  {
    "buCode": "021",
    "name": "Zagreb",
    "countryCode": "hr"
  },
  {
    "buCode": "457",
    "name": "Ancona",
    "countryCode": "it"
  },
  {
    "buCode": "356",
    "name": "Bari",
    "countryCode": "it"
  },
  {
    "buCode": "231",
    "name": "Bologna Casalecchio",
    "countryCode": "it"
  },
  {
    "buCode": "354",
    "name": "Brescia Roncadelle",
    "countryCode": "it"
  },
  {
    "buCode": "098",
    "name": "Catania",
    "countryCode": "it"
  },
  {
    "buCode": "029",
    "name": "Chieti S.G. Teatino",
    "countryCode": "it"
  },
  {
    "buCode": "352",
    "name": "Firenze Sesto F.no",
    "countryCode": "it"
  },
  {
    "buCode": "232",
    "name": "Genova",
    "countryCode": "it"
  },
  {
    "buCode": "116",
    "name": "Gorizia_Villesse",
    "countryCode": "it"
  },
  {
    "buCode": "233",
    "name": "Milano Carugate",
    "countryCode": "it"
  },
  {
    "buCode": "455",
    "name": "Milano Corsico",
    "countryCode": "it"
  },
  {
    "buCode": "295",
    "name": "Milano San Giuliano",
    "countryCode": "it"
  },
  {
    "buCode": "353",
    "name": "Napoli Afragola",
    "countryCode": "it"
  },
  {
    "buCode": "355",
    "name": "Padova",
    "countryCode": "it"
  },
  {
    "buCode": "303",
    "name": "Parma",
    "countryCode": "it"
  },
  {
    "buCode": "314",
    "name": "Pisa",
    "countryCode": "it"
  },
  {
    "buCode": "111",
    "name": "Rimini",
    "countryCode": "it"
  },
  {
    "buCode": "234",
    "name": "Roma Anagnina",
    "countryCode": "it"
  },
  {
    "buCode": "427",
    "name": "Roma Porta di Roma",
    "countryCode": "it"
  },
  {
    "buCode": "458",
    "name": "Salerno Baronissi",
    "countryCode": "it"
  },
  {
    "buCode": "456",
    "name": "Torino Collegno",
    "countryCode": "it"
  },
  {
    "buCode": "447",
    "name": "Tokyo-Bay",
    "countryCode": "jp"
  },
  {
    "buCode": "448",
    "name": "港北",
    "countryCode": "jp"
  },
  {
    "buCode": "887",
    "name": "新三郷",
    "countryCode": "jp"
  },
  {
    "buCode": "486",
    "name": "神戸",
    "countryCode": "jp"
  },
  {
    "buCode": "392",
    "name": "仙台",
    "countryCode": "jp"
  },
  {
    "buCode": "496",
    "name": "鶴浜",
    "countryCode": "jp"
  },
  {
    "buCode": "189",
    "name": "福岡新宮",
    "countryCode": "jp"
  },
  {
    "buCode": "359",
    "name": "立川",
    "countryCode": "jp"
  },
  {
    "buCode": "373",
    "name": "Gwangmyeong",
    "countryCode": "kr"
  },
  {
    "buCode": "522",
    "name": "Goyang",
    "countryCode": "kr"
  },
  {
    "buCode": "219",
    "name": "Kuwait",
    "countryCode": "kw"
  },
  {
    "buCode": "235",
    "name": "Vilnius",
    "countryCode": "lt"
  },
  {
    "buCode": "415",
    "name": "Amersfoort",
    "countryCode": "nl"
  },
  {
    "buCode": "088",
    "name": "Amsterdam",
    "countryCode": "nl"
  },
  {
    "buCode": "274",
    "name": "Barendrecht (Rotterdam)",
    "countryCode": "nl"
  },
  {
    "buCode": "403",
    "name": "Breda",
    "countryCode": "nl"
  },
  {
    "buCode": "151",
    "name": "Delft",
    "countryCode": "nl"
  },
  {
    "buCode": "272",
    "name": "Duiven",
    "countryCode": "nl"
  },
  {
    "buCode": "087",
    "name": "Eindhoven",
    "countryCode": "nl"
  },
  {
    "buCode": "404",
    "name": "Groningen",
    "countryCode": "nl"
  },
  {
    "buCode": "378",
    "name": "Haarlem",
    "countryCode": "nl"
  },
  {
    "buCode": "089",
    "name": "Heerlen",
    "countryCode": "nl"
  },
  {
    "buCode": "312",
    "name": "Hengelo",
    "countryCode": "nl"
  },
  {
    "buCode": "270",
    "name": "Utrecht",
    "countryCode": "nl"
  },
  {
    "buCode": "391",
    "name": "Zwolle",
    "countryCode": "nl"
  },
  {
    "buCode": "429",
    "name": "Bydgoszcz",
    "countryCode": "pl"
  },
  {
    "buCode": "203",
    "name": "Gdańsk",
    "countryCode": "pl"
  },
  {
    "buCode": "306",
    "name": "Katowice",
    "countryCode": "pl"
  },
  {
    "buCode": "204",
    "name": "Kraków",
    "countryCode": "pl"
  },
  {
    "buCode": "329",
    "name": "Łódź",
    "countryCode": "pl"
  },
  {
    "buCode": "205",
    "name": "Poznań",
    "countryCode": "pl"
  },
  {
    "buCode": "188",
    "name": "Warszawa / Janki",
    "countryCode": "pl"
  },
  {
    "buCode": "307",
    "name": "Warszawa / Targówek",
    "countryCode": "pl"
  },
  {
    "buCode": "294",
    "name": "Wrocław",
    "countryCode": "pl"
  },
  {
    "buCode": "059",
    "name": "Bucuresti",
    "countryCode": "ro"
  },
  {
    "buCode": "126",
    "name": "Forus",
    "countryCode": "no"
  },
  {
    "buCode": "095",
    "name": "Furuset",
    "countryCode": "no"
  },
  {
    "buCode": "371",
    "name": "Leangen",
    "countryCode": "no"
  },
  {
    "buCode": "390",
    "name": "Ringsaker",
    "countryCode": "no"
  },
  {
    "buCode": "091",
    "name": "Slependen",
    "countryCode": "no"
  },
  {
    "buCode": "007",
    "name": "Sørlandet",
    "countryCode": "no"
  },
  {
    "buCode": "441",
    "name": "Åsane",
    "countryCode": "no"
  },
  {
    "buCode": "367",
    "name": "Alfragide",
    "countryCode": "pt"
  },
  {
    "buCode": "499",
    "name": "Braga",
    "countryCode": "pt"
  },
  {
    "buCode": "001",
    "name": "Loures",
    "countryCode": "pt"
  },
  {
    "buCode": "009",
    "name": "Matosinhos",
    "countryCode": "pt"
  },
  {
    "buCode": "524",
    "name": "Homeshopping Russia",
    "countryCode": "ru"
  },
  {
    "buCode": "480",
    "name": "Адыгея-Кубань",
    "countryCode": "ru"
  },
  {
    "buCode": "344",
    "name": "Белая Дача",
    "countryCode": "ru"
  },
  {
    "buCode": "426",
    "name": "Дыбенко",
    "countryCode": "ru"
  },
  {
    "buCode": "342",
    "name": "Екатеринбург",
    "countryCode": "ru"
  },
  {
    "buCode": "341",
    "name": "Казань",
    "countryCode": "ru"
  },
  {
    "buCode": "437",
    "name": "Нижний Новгород",
    "countryCode": "ru"
  },
  {
    "buCode": "338",
    "name": "Новосибирск",
    "countryCode": "ru"
  },
  {
    "buCode": "351",
    "name": "Омск",
    "countryCode": "ru"
  },
  {
    "buCode": "464",
    "name": "Парнас",
    "countryCode": "ru"
  },
  {
    "buCode": "443",
    "name": "Ростов-на-Дону",
    "countryCode": "ru"
  },
  {
    "buCode": "442",
    "name": "Самара",
    "countryCode": "ru"
  },
  {
    "buCode": "336",
    "name": "Теплый Стан",
    "countryCode": "ru"
  },
  {
    "buCode": "346",
    "name": "Уфа",
    "countryCode": "ru"
  },
  {
    "buCode": "335",
    "name": "Химки",
    "countryCode": "ru"
  },
  {
    "buCode": "489",
    "name": "Bratislava",
    "countryCode": "sk"
  },
  {
    "buCode": "062",
    "name": "Causeway Bay",
    "countryCode": "hk"
  },
  {
    "buCode": "071",
    "name": "Kowloon Bay",
    "countryCode": "hk"
  },
  {
    "buCode": "052",
    "name": "Shatin",
    "countryCode": "hk"
  },
  {
    "buCode": "248",
    "name": "Borlänge",
    "countryCode": "se"
  },
  {
    "buCode": "122",
    "name": "Gävle",
    "countryCode": "se"
  },
  {
    "buCode": "398",
    "name": "Göteborg Bäckebol",
    "countryCode": "se"
  },
  {
    "buCode": "014",
    "name": "Göteborg Kållered",
    "countryCode": "se"
  },
  {
    "buCode": "470",
    "name": "HaparandaTornio",
    "countryCode": "se"
  },
  {
    "buCode": "468",
    "name": "Helsingborg",
    "countryCode": "se"
  },
  {
    "buCode": "109",
    "name": "Jönköping",
    "countryCode": "se"
  },
  {
    "buCode": "469",
    "name": "Kalmar",
    "countryCode": "se"
  },
  {
    "buCode": "471",
    "name": "Karlstad",
    "countryCode": "se"
  },
  {
    "buCode": "017",
    "name": "Linköping",
    "countryCode": "se"
  },
  {
    "buCode": "445",
    "name": "Malmö",
    "countryCode": "se"
  },
  {
    "buCode": "019",
    "name": "Stockholm Barkarby",
    "countryCode": "se"
  },
  {
    "buCode": "012",
    "name": "Stockholm Kungens Kurva",
    "countryCode": "se"
  },
  {
    "buCode": "467",
    "name": "Sundsvall",
    "countryCode": "se"
  },
  {
    "buCode": "053",
    "name": "Uddevalla",
    "countryCode": "se"
  },
  {
    "buCode": "416",
    "name": "Umeå",
    "countryCode": "se"
  },
  {
    "buCode": "070",
    "name": "Uppsala",
    "countryCode": "se"
  },
  {
    "buCode": "020",
    "name": "Västerås",
    "countryCode": "se"
  },
  {
    "buCode": "268",
    "name": "Älmhult",
    "countryCode": "se"
  },
  {
    "buCode": "106",
    "name": "Örebro",
    "countryCode": "se"
  },
  {
    "buCode": "045",
    "name": "Alexandra",
    "countryCode": "sg"
  },
  {
    "buCode": "022",
    "name": "Tampines",
    "countryCode": "sg"
  },
  {
    "buCode": "209",
    "name": "AZ, Tempe",
    "countryCode": "us"
  },
  {
    "buCode": "399",
    "name": "CA, Burbank",
    "countryCode": "us"
  },
  {
    "buCode": "162",
    "name": "CA, Carson",
    "countryCode": "us"
  },
  {
    "buCode": "167",
    "name": "CA, Costa Mesa",
    "countryCode": "us"
  },
  {
    "buCode": "413",
    "name": "CA, Covina",
    "countryCode": "us"
  },
  {
    "buCode": "347",
    "name": "CA, East Palo Alto",
    "countryCode": "us"
  },
  {
    "buCode": "165",
    "name": "CA, Emeryville",
    "countryCode": "us"
  },
  {
    "buCode": "166",
    "name": "CA, San Diego",
    "countryCode": "us"
  },
  {
    "buCode": "157",
    "name": "CA, West Sacramento",
    "countryCode": "us"
  },
  {
    "buCode": "064",
    "name": "CO, Centennial",
    "countryCode": "us"
  },
  {
    "buCode": "213",
    "name": "CT, New Haven",
    "countryCode": "us"
  },
  {
    "buCode": "327",
    "name": "FL, Miami",
    "countryCode": "us"
  },
  {
    "buCode": "145",
    "name": "FL, Orlando",
    "countryCode": "us"
  },
  {
    "buCode": "207",
    "name": "FL, Sunrise",
    "countryCode": "us"
  },
  {
    "buCode": "042",
    "name": "FL, Tampa",
    "countryCode": "us"
  },
  {
    "buCode": "257",
    "name": "GA, Atlanta",
    "countryCode": "us"
  },
  {
    "buCode": "170",
    "name": "IL, Bolingbrook",
    "countryCode": "us"
  },
  {
    "buCode": "210",
    "name": "IL, Schaumburg",
    "countryCode": "us"
  },
  {
    "buCode": "374",
    "name": "KS, Merriam",
    "countryCode": "us"
  },
  {
    "buCode": "158",
    "name": "MA, Stoughton",
    "countryCode": "us"
  },
  {
    "buCode": "152",
    "name": "MD, Baltimore",
    "countryCode": "us"
  },
  {
    "buCode": "411",
    "name": "MD, College Park",
    "countryCode": "us"
  },
  {
    "buCode": "026",
    "name": "MI, Canton",
    "countryCode": "us"
  },
  {
    "buCode": "212",
    "name": "MN, Twin Cities",
    "countryCode": "us"
  },
  {
    "buCode": "410",
    "name": "MO, St. Louis ",
    "countryCode": "us"
  },
  {
    "buCode": "067",
    "name": "NC, Charlotte",
    "countryCode": "us"
  },
  {
    "buCode": "154",
    "name": "NJ, Elizabeth",
    "countryCode": "us"
  },
  {
    "buCode": "409",
    "name": "NJ, Paramus",
    "countryCode": "us"
  },
  {
    "buCode": "462",
    "name": "NV, Las Vegas",
    "countryCode": "us"
  },
  {
    "buCode": "921",
    "name": "NY, Brooklyn",
    "countryCode": "us"
  },
  {
    "buCode": "156",
    "name": "NY, Long Island",
    "countryCode": "us"
  },
  {
    "buCode": "175",
    "name": "OH, West Chester",
    "countryCode": "us"
  },
  {
    "buCode": "028",
    "name": "OR, Portland",
    "countryCode": "us"
  },
  {
    "buCode": "211",
    "name": "PA, Conshohocken",
    "countryCode": "us"
  },
  {
    "buCode": "153",
    "name": "PA, Pittsburgh",
    "countryCode": "us"
  },
  {
    "buCode": "215",
    "name": "PA, South Philadelphia",
    "countryCode": "us"
  },
  {
    "buCode": "508",
    "name": "TN, Memphis",
    "countryCode": "us"
  },
  {
    "buCode": "183",
    "name": "TX, Frisco",
    "countryCode": "us"
  },
  {
    "buCode": "379",
    "name": "TX, Houston",
    "countryCode": "us"
  },
  {
    "buCode": "027",
    "name": "TX, Round Rock",
    "countryCode": "us"
  },
  {
    "buCode": "103",
    "name": "UT, Draper",
    "countryCode": "us"
  },
  {
    "buCode": "168",
    "name": "VA, Woodbridge",
    "countryCode": "us"
  },
  {
    "buCode": "250",
    "name": "WA, Seattle",
    "countryCode": "us"
  },
  {
    "buCode": "065",
    "name": "Dhahran",
    "countryCode": "sa"
  },
  {
    "buCode": "110",
    "name": "Jeddah",
    "countryCode": "sa"
  },
  {
    "buCode": "197",
    "name": "Riyadh",
    "countryCode": "sa"
  },
  {
    "buCode": "305",
    "name": "台中店",
    "countryCode": "tw"
  },
  {
    "buCode": "361",
    "name": "桃園店",
    "countryCode": "tw"
  },
  {
    "buCode": "879",
    "name": "高雄店",
    "countryCode": "tw"
  },
  {
    "buCode": "350",
    "name": "敦北店",
    "countryCode": "tw"
  },
  {
    "buCode": "363",
    "name": "新莊店",
    "countryCode": "tw"
  },
  {
    "buCode": "244",
    "name": "Qatar",
    "countryCode": "qa"
  },
  {
    "buCode": "192",
    "name": "Adelaide",
    "countryCode": "aa"
  },
  {
    "buCode": "191",
    "name": "Perth",
    "countryCode": "aa"
  },
  {
    "buCode": "055",
    "name": "Abu Dhabi",
    "countryCode": "ae"
  },
  {
    "buCode": "218",
    "name": "Dubai",
    "countryCode": "ae"
  },
  {
    "buCode": "451",
    "name": "Canberra",
    "countryCode": "au"
  },
  {
    "buCode": "919",
    "name": "Logan",
    "countryCode": "au"
  },
  {
    "buCode": "377",
    "name": "Marsden Park",
    "countryCode": "au"
  },
  {
    "buCode": "460",
    "name": "North Lakes",
    "countryCode": "au"
  },
  {
    "buCode": "385",
    "name": "Rhodes",
    "countryCode": "au"
  },
  {
    "buCode": "384",
    "name": "Richmond",
    "countryCode": "au"
  },
  {
    "buCode": "006",
    "name": "Springvale",
    "countryCode": "au"
  },
  {
    "buCode": "446",
    "name": "Tempe",
    "countryCode": "au"
  },
  {
    "buCode": "414",
    "name": "Boucherville",
    "countryCode": "ca"
  },
  {
    "buCode": "040",
    "name": "Burlington",
    "countryCode": "ca"
  },
  {
    "buCode": "216",
    "name": "Calgary",
    "countryCode": "ca"
  },
  {
    "buCode": "313",
    "name": "Coquitlam",
    "countryCode": "ca"
  },
  {
    "buCode": "349",
    "name": "Edmonton",
    "countryCode": "ca"
  },
  {
    "buCode": "256",
    "name": "Etobicoke",
    "countryCode": "ca"
  },
  {
    "buCode": "039",
    "name": "Montreal",
    "countryCode": "ca"
  },
  {
    "buCode": "149",
    "name": "North York",
    "countryCode": "ca"
  },
  {
    "buCode": "004",
    "name": "Ottawa",
    "countryCode": "ca"
  },
  {
    "buCode": "003",
    "name": "Richmond",
    "countryCode": "ca"
  },
  {
    "buCode": "372",
    "name": "Vaughan",
    "countryCode": "ca"
  },
  {
    "buCode": "249",
    "name": "Winnipeg",
    "countryCode": "ca"
  },
  {
    "buCode": "802",
    "name": "北京四元桥商场",
    "countryCode": "cn"
  },
  {
    "buCode": "214",
    "name": "北京西红门商场",
    "countryCode": "cn"
  },
  {
    "buCode": "418",
    "name": "成都成华商场",
    "countryCode": "cn"
  },
  {
    "buCode": "466",
    "name": "成都高新商场",
    "countryCode": "cn"
  },
  {
    "buCode": "495",
    "name": "大连商场",
    "countryCode": "cn"
  },
  {
    "buCode": "459",
    "name": "佛山商场",
    "countryCode": "cn"
  },
  {
    "buCode": "465",
    "name": "广州商场",
    "countryCode": "cn"
  },
  {
    "buCode": "401",
    "name": "杭州商场",
    "countryCode": "cn"
  },
  {
    "buCode": "481",
    "name": "南京商场",
    "countryCode": "cn"
  },
  {
    "buCode": "279",
    "name": "宁波商场",
    "countryCode": "cn"
  },
  {
    "buCode": "247",
    "name": "上海宝山商场",
    "countryCode": "cn"
  },
  {
    "buCode": "885",
    "name": "上海北蔡商场",
    "countryCode": "cn"
  },
  {
    "buCode": "856",
    "name": "上海徐汇商场",
    "countryCode": "cn"
  },
  {
    "buCode": "833",
    "name": "深圳商场",
    "countryCode": "cn"
  },
  {
    "buCode": "886",
    "name": "沈阳商场",
    "countryCode": "cn"
  },
  {
    "buCode": "484",
    "name": "苏州商场",
    "countryCode": "cn"
  },
  {
    "buCode": "058",
    "name": "天津商场",
    "countryCode": "cn"
  },
  {
    "buCode": "164",
    "name": "无锡商场",
    "countryCode": "cn"
  },
  {
    "buCode": "340",
    "name": "武汉商场",
    "countryCode": "cn"
  },
  {
    "buCode": "424",
    "name": "西安商场",
    "countryCode": "cn"
  },
  {
    "buCode": "330",
    "name": "重庆商场",
    "countryCode": "cn"
  },
  {
    "buCode": "278",
    "name": "Brno",
    "countryCode": "cz"
  },
  {
    "buCode": "309",
    "name": "Ostrava",
    "countryCode": "cz"
  },
  {
    "buCode": "408",
    "name": "Praha Černý Most",
    "countryCode": "cz"
  },
  {
    "buCode": "178",
    "name": "Praha-Zličín",
    "countryCode": "cz"
  },
  {
    "buCode": "121",
    "name": "Gentofte",
    "countryCode": "dk"
  },
  {
    "buCode": "172",
    "name": "Odense",
    "countryCode": "dk"
  },
  {
    "buCode": "094",
    "name": "Taastrup",
    "countryCode": "dk"
  },
  {
    "buCode": "005",
    "name": "Aalborg",
    "countryCode": "dk"
  },
  {
    "buCode": "298",
    "name": "Aarhus",
    "countryCode": "dk"
  },
  {
    "buCode": "182",
    "name": "Budaörs:",
    "countryCode": "hu"
  },
  {
    "buCode": "180",
    "name": "Budapest:",
    "countryCode": "hu"
  },
  {
    "buCode": "237",
    "name": "Amman",
    "countryCode": "jo"
  },
  {
    "buCode": "057",
    "name": "Bangna",
    "countryCode": "th"
  },
  {
    "buCode": "362",
    "name": "Cheras",
    "countryCode": "my"
  },
  {
    "buCode": "438",
    "name": "Damansara",
    "countryCode": "my"
  }
]